<svg class="h-5 w-5" xmlns="http://www.w3.org/2000/svg" fill="none" viewBox="0 0 24 24" stroke="currentColor" aria-hidden="true">
  <circle cx="12" cy="12" r="10" stroke="currentColor" stroke-width="2" fill="none" />
  <path d="M15 9L9 15M9 9l6 6" stroke="currentColor" stroke-width="2" stroke-linecap="round" stroke-linejoin="round" />
</svg>